<?xml version="1.0" encoding="utf-8"?>
<!-- Generator: Adobe Illustrator 19.0.1, SVG Export Plug-In . SVG Version: 6.00 Build 0)  -->
<svg version="1.1" id="Layer_1" xmlns="http://www.w3.org/2000/svg" xmlns:xlink="http://www.w3.org/1999/xlink" x="0px" y="0px"
	 width="20px" height="20px" viewBox="0 0 20 20" enable-background="new 0 0 20 20" xml:space="preserve">
<path d="M2,14.5C2,16.435,3.57,18,5.5,18L4,19.5V20h12v-0.5L14.5,18c1.935,0,3.5-1.565,3.5-3.5V4c0-3.5-3.58-4-8-4S2,0.5,2,4V14.5z
	 M10,16c-1.105,0-2-0.895-2-2s0.895-2,2-2s2,0.895,2,2S11.105,16,10,16z M16,9H4V4h12V9z"/>
</svg>
